备砖： 用R进行数据管理1
…
arrange(): 案例排序

字符串处理

日期处理

tibbles 数据框

data.frame基础做了针对性的改进。无行名，不修改变量类型，灵活列印,索引方便等等。继承了data.frame的其他多数特性。

library(tidyverse)
as_tibble(iris)

## # A tibble: 150 x 5
##    Sepal.Length Sepal.Width Petal.Length Petal.Width Species
##           <dbl>       <dbl>        <dbl>       <dbl> <fct>  
##  1         5.10        3.50         1.40       0.200 setosa 
##  2         4.90        3.00         1.40       0.200 setosa 
##  3         4.70        3.20         1.30       0.200 setosa 
##  4         4.60        3.10         1.50       0.200 setosa 
##  5         5.00        3.60         1.40       0.200 setosa 
##  6         5.40        3.90         1.70       0.400 setosa 
##  7         4.60        3.40         1.40       0.300 setosa 
##  8         5.00        3.40         1.50       0.200 setosa 
##  9         4.40        2.90         1.40       0.200 setosa 
## 10         4.90        3.10         1.50       0.100 setosa 
## # ... with 140 more rows
…
能同时设定多个筛选条件

# 读入数据
bike <- read_delim("../data/nc_bike_crash.csv", ";", 
    escape_double = FALSE, trim_ws = TRUE)

筛选个案 filter()

选出Durham县发生的与自行车相关的交通事故 注意：== | & > < >= <= != 等比较符号。

bike %>%
  filter(County == "Durham")

## # A tibble: 253 x 54
##      FID OBJECTID AmbulanceR BikeAge_Gr Bike_Age Bike_Alc_D Bike_Dir      
##    <int>    <int> <chr>      <chr>         <int> <chr>      <chr>         
##  1    18       19 No         <NA>              6 No         Not Applicable
##  2    53       54 Yes        50-59            52 No         With Traffic  
##  3    56       57 Yes        16-19            18 No         <NA>          
##  4   209      210 No         16-19            16 No         Facing Traffic
##  5   228      229 Yes        40-49            40 No         With Traffic  
##  6   620      621 Yes        50-59            55 No         With Traffic  
##  7   667      668 Yes        60-69            61 No         Not Applicable
##  8   458      459 Yes        60-69            62 No         With Traffic  
##  9   576      577 No         40-49            49 No         With Traffic  
## 10   618      619 No         20-24            23 No         With Traffic  
## # ... with 243 more rows, and 47 more variables: Bike_Injur <chr>,
## #   Bike_Pos <chr>, Bike_Race <chr>, Bike_Sex <chr>, City <chr>,
## #   County <chr>, CrashAlcoh <chr>, CrashDay <chr>, Crash_Date <date>,
## #   Crash_Grp <chr>, Crash_Hour <int>, Crash_Loc <chr>, Crash_Mont <chr>,
## #   Crash_Time <dttm>, Crash_Type <chr>, Crash_Ty_1 <int>,
## #   Crash_Year <int>, Crsh_Sevri <chr>, Developmen <chr>,
## #   DrvrAge_Gr <chr>, Drvr_Age <int>, Drvr_Alc_D <chr>, Drvr_EstSp <chr>,
## #   Drvr_Injur <chr>, Drvr_Race <chr>, Drvr_Sex <chr>, Drvr_VehTy <chr>,
## #   ExcsSpdInd <chr>, Hit_Run <chr>, Light_Cond <chr>, Locality <chr>,
…
## [1] 1 3 1

# 平均多少个元音
mean(str_count(words, "[aeiou]"))

## [1] 1.991837

wddf %>% 
  mutate(
    vowels = str_count(word, "[aeiou]"),
    consonants = str_count(word, "[^aeiou]")
  )

## # A tibble: 980 x 4
##    word         i vowels consonants
##    <chr>    <int>  <int>      <int>
##  1 a            1      1          0
##  2 able         2      2          2
##  3 about        3      3          2
##  4 absolute     4      4          4
##  5 accept       5      2          4
##  6 account      6      3          4
##  7 achieve      7      4          3
##  8 across       8      2          4
##  9 act          9      1          2
## 10 active      10      3          3
## # ... with 970 more rows
…
## [1] "2017-01-31 UTC"

组合成分为时间

library(nycflights13)
flights_dt <- flights %>% 
   filter(!is.na(dep_time), !is.na(arr_time)) %>% 
  mutate(
    departure = make_datetime(year, month, day, hour, minute),
    dep_time =  make_datetime(year, month, day, dep_time %/% 100, dep_time %% 100))
flights_dt  %>% 
  select(year, month, day, hour, minute,departure,dep_time)

## # A tibble: 328,063 x 7
##     year month   day  hour minute departure           dep_time           
##    <int> <int> <int> <dbl>  <dbl> <dttm>              <dttm>             
##  1  2013     1     1    5.    15. 2013-01-01 05:15:00 2013-01-01 05:17:00
##  2  2013     1     1    5.    29. 2013-01-01 05:29:00 2013-01-01 05:33:00
##  3  2013     1     1    5.    40. 2013-01-01 05:40:00 2013-01-01 05:42:00
##  4  2013     1     1    5.    45. 2013-01-01 05:45:00 2013-01-01 05:44:00
##  5  2013     1     1    6.     0. 2013-01-01 06:00:00 2013-01-01 05:54:00
##  6  2013     1     1    5.    58. 2013-01-01 05:58:00 2013-01-01 05:54:00
##  7  2013     1     1    6.     0. 2013-01-01 06:00:00 2013-01-01 05:55:00
##  8  2013     1     1    6.     0. 2013-01-01 06:00:00 2013-01-01 05:57:00
##  9  2013     1     1    6.     0. 2013-01-01 06:00:00 2013-01-01 05:57:00
## 10  2013     1     1    6.     0. 2013-01-01 06:00:00 2013-01-01 05:58:00
## # ... with 328,053 more rows
…
